-------------------------------------------------------------------------------
Test set: com.mycompany.testjobposting.JobServiceTest
-------------------------------------------------------------------------------
Tests run: 5, Failures: 0, Errors: 0, Skipped: 0, Time elapsed: 0.002 sec
